[
    {
        "color": "#00ff00",
        "x": 1474,
        "y": 1068,
        "width": 127,
        "height": 127
    },
    {
        "color": "#00ff00",
        "x": 251,
        "y": 1084,
        "width": 115,
        "height": 115
    },
    {
        "color": "#00ff00",
        "x": 2232,
        "y": 1120,
        "width": 125,
        "height": 125
    },
    {
        "color": "#00ff00",
        "x": 1371,
        "y": 1350,
        "width": 254,
        "height": 254
    },
    {
        "color": "#00ff00",
        "x": 1373,
        "y": 1104,
        "width": 98,
        "height": 98
    },
    {
        "color": "#00ff00",
        "x": 2512,
        "y": 1243,
        "width": 158,
        "height": 158
    },
    {
        "color": "#00ff00",
        "x": 1574,
        "y": 1281,
        "width": 106,
        "height": 106
    }
]