{
    "classifier": "al2",
    "true_positive": 5,
    "false_positive": 0,
    "false_negative": 4,
    "true_positive_detections": [
        {
            "x": 368,
            "y": 266,
            "width": 34,
            "height": 34
        },
        {
            "x": 63,
            "y": 272,
            "width": 28,
            "height": 28
        },
        {
            "x": 557,
            "y": 280,
            "width": 32,
            "height": 32
        },
        {
            "x": 626,
            "y": 310,
            "width": 42,
            "height": 42
        },
        {
            "x": 342,
            "y": 338,
            "width": 65,
            "height": 65
        }
    ]
}