{
    "classifier": "alt",
    "true_positive": 4,
    "false_positive": 0,
    "false_negative": 1,
    "true_positive_detections": [
        {
            "x": 455,
            "y": 262,
            "width": 29,
            "height": 29
        },
        {
            "x": 725,
            "y": 264,
            "width": 25,
            "height": 25
        },
        {
            "x": 272,
            "y": 279,
            "width": 40,
            "height": 40
        },
        {
            "x": 551,
            "y": 291,
            "width": 45,
            "height": 45
        }
    ]
}