[
    {
        "color": "#00ff00",
        "x": 303,
        "y": 1060,
        "width": 104,
        "height": 104
    },
    {
        "color": "#00ff00",
        "x": 725,
        "y": 1070,
        "width": 111,
        "height": 111
    },
    {
        "color": "#00ff00",
        "x": 1812,
        "y": 1123,
        "width": 134,
        "height": 134
    },
    {
        "color": "#00ff00",
        "x": 999,
        "y": 1268,
        "width": 193,
        "height": 193
    },
    {
        "color": "#00ff00",
        "x": 2069,
        "y": 1308,
        "width": 266,
        "height": 266
    },
    {
        "color": "#00ff00",
        "x": 865,
        "y": 1031,
        "width": 75,
        "height": 75
    },
    {
        "color": "#00ff00",
        "x": 2487,
        "y": 1172,
        "width": 182,
        "height": 182
    }
]