[
    {
        "color": "#00ff00",
        "x": 1693,
        "y": 1044,
        "width": 137,
        "height": 137
    },
    {
        "color": "#00ff00",
        "x": 2473,
        "y": 1062,
        "width": 179,
        "height": 179
    },
    {
        "color": "#00ff00",
        "x": 904,
        "y": 1208,
        "width": 218,
        "height": 218
    }
]