[
    {
        "color": "#00ff00",
        "x": 74,
        "y": 264,
        "width": 29,
        "height": 29
    },
    {
        "color": "#00ff00",
        "x": 181,
        "y": 268,
        "width": 28,
        "height": 28
    },
    {
        "color": "#00ff00",
        "x": 453,
        "y": 281,
        "width": 34,
        "height": 34
    },
    {
        "color": "#00ff00",
        "x": 622,
        "y": 293,
        "width": 47,
        "height": 47
    },
    {
        "color": "#00ff00",
        "x": 246,
        "y": 315,
        "width": 54,
        "height": 54
    },
    {
        "color": "#00ff00",
        "x": 516,
        "y": 326,
        "width": 68,
        "height": 68
    }
]