[
    {
        "color": "#00ff00",
        "x": 1305,
        "y": 925,
        "width": 129,
        "height": 129
    },
    {
        "color": "#00ff00",
        "x": 2008,
        "y": 953,
        "width": 141,
        "height": 141
    },
    {
        "color": "#00ff00",
        "x": 776,
        "y": 1031,
        "width": 181,
        "height": 181
    },
    {
        "color": "#00ff00",
        "x": 1736,
        "y": 1095,
        "width": 192,
        "height": 192
    },
    {
        "color": "#00ff00",
        "x": 2666,
        "y": 1243,
        "width": 225,
        "height": 225
    }
]