{
    "classifier": "alt",
    "true_positive": 6,
    "false_positive": 0,
    "false_negative": 4,
    "true_positive_detections": [
        {
            "x": 609,
            "y": 196,
            "width": 23,
            "height": 23
        },
        {
            "x": 256,
            "y": 216,
            "width": 28,
            "height": 28
        },
        {
            "x": 494,
            "y": 227,
            "width": 31,
            "height": 31
        },
        {
            "x": 376,
            "y": 220,
            "width": 45,
            "height": 45
        },
        {
            "x": 628,
            "y": 230,
            "width": 40,
            "height": 40
        },
        {
            "x": 781,
            "y": 288,
            "width": 48,
            "height": 48
        }
    ]
}