[
    {
        "color": "#00ff00",
        "x": 414,
        "y": 1044,
        "width": 122,
        "height": 122
    },
    {
        "color": "#00ff00",
        "x": 1468,
        "y": 1104,
        "width": 164,
        "height": 164
    },
    {
        "color": "#00ff00",
        "x": 759,
        "y": 1349,
        "width": 249,
        "height": 249
    },
    {
        "color": "#00ff00",
        "x": 2343,
        "y": 1386,
        "width": 227,
        "height": 227
    },
    {
        "color": "#00ff00",
        "x": 2697,
        "y": 1148,
        "width": 116,
        "height": 116
    },
    {
        "color": "#00ff00",
        "x": 2574,
        "y": 1288,
        "width": 177,
        "height": 177
    }
]