[
    {
        "color": "#00ff00",
        "x": 281,
        "y": 239,
        "width": 29,
        "height": 29
    },
    {
        "color": "#00ff00",
        "x": 611,
        "y": 249,
        "width": 25,
        "height": 25
    },
    {
        "color": "#00ff00",
        "x": 700,
        "y": 295,
        "width": 39,
        "height": 39
    },
    {
        "color": "#00ff00",
        "x": 731,
        "y": 271,
        "width": 30,
        "height": 30
    },
    {
        "color": "#00ff00",
        "x": 684,
        "y": 351,
        "width": 60,
        "height": 60
    },
    {
        "color": "#00ff00",
        "x": 348,
        "y": 334,
        "width": 57,
        "height": 57
    },
    {
        "color": "#00ff00",
        "x": 553,
        "y": 470,
        "width": 68,
        "height": 68
    }
]