[
    {
        "color": "#00ff00",
        "x": 1360,
        "y": 640,
        "width": 128,
        "height": 128
    },
    {
        "color": "#00ff00",
        "x": 1976,
        "y": 717,
        "width": 105,
        "height": 105
    },
    {
        "color": "#00ff00",
        "x": 2049,
        "y": 813,
        "width": 157,
        "height": 157
    },
    {
        "color": "#00ff00",
        "x": 1145,
        "y": 822,
        "width": 142,
        "height": 142
    },
    {
        "color": "#00ff00",
        "x": 1024,
        "y": 994,
        "width": 199,
        "height": 199
    },
    {
        "color": "#00ff00",
        "x": 2216,
        "y": 1039,
        "width": 198,
        "height": 198
    },
    {
        "color": "#00ff00",
        "x": 333,
        "y": 1226,
        "width": 304,
        "height": 304
    },
    {
        "color": "#00ff00",
        "x": 2370,
        "y": 1319,
        "width": 296,
        "height": 296
    }
]