[
    {
        "color": "#00ff00",
        "x": 1936,
        "y": 942,
        "width": 61,
        "height": 61
    },
    {
        "color": "#00ff00",
        "x": 1982,
        "y": 956,
        "width": 87,
        "height": 87
    },
    {
        "color": "#00ff00",
        "x": 485,
        "y": 938,
        "width": 106,
        "height": 106
    },
    {
        "color": "#00ff00",
        "x": 1251,
        "y": 1079,
        "width": 113,
        "height": 113
    },
    {
        "color": "#00ff00",
        "x": 2064,
        "y": 1160,
        "width": 140,
        "height": 140
    },
    {
        "color": "#00ff00",
        "x": 2929,
        "y": 1171,
        "width": 156,
        "height": 156
    },
    {
        "color": "#00ff00",
        "x": 1641,
        "y": 1335,
        "width": 272,
        "height": 272
    },
    {
        "color": "#00ff00",
        "x": 511,
        "y": 1175,
        "width": 187,
        "height": 187
    },
    {
        "color": "#00ff00",
        "x": 2996,
        "y": 1430,
        "width": 261,
        "height": 261
    }
]