[
    {
        "color": "#00ff00",
        "x": 1982,
        "y": 955,
        "width": 91,
        "height": 91
    },
    {
        "color": "#00ff00",
        "x": 1657,
        "y": 1335,
        "width": 267,
        "height": 267
    },
    {
        "color": "#00ff00",
        "x": 1252,
        "y": 1078,
        "width": 116,
        "height": 116
    },
    {
        "color": "#00ff00",
        "x": 500,
        "y": 1169,
        "width": 203,
        "height": 203
    },
    {
        "color": "#00ff00",
        "x": 2992,
        "y": 1429,
        "width": 269,
        "height": 269
    }
]