[
    {
        "color": "#00ff00",
        "x": 2036,
        "y": 1079,
        "width": 136,
        "height": 136
    },
    {
        "color": "#00ff00",
        "x": 2968,
        "y": 1124,
        "width": 167,
        "height": 167
    },
    {
        "color": "#00ff00",
        "x": 3210,
        "y": 1083,
        "width": 127,
        "height": 127
    }
]