[
    {
        "color": "#00ff00",
        "x": 147,
        "y": 233,
        "width": 36,
        "height": 36
    },
    {
        "color": "#00ff00",
        "x": 284,
        "y": 246,
        "width": 30,
        "height": 30
    },
    {
        "color": "#00ff00",
        "x": 509,
        "y": 270,
        "width": 35,
        "height": 35
    },
    {
        "color": "#00ff00",
        "x": 799,
        "y": 269,
        "width": 36,
        "height": 36
    },
    {
        "color": "#00ff00",
        "x": 741,
        "y": 280,
        "width": 45,
        "height": 45
    },
    {
        "color": "#00ff00",
        "x": 671,
        "y": 342,
        "width": 55,
        "height": 55
    }
]