{
    "classifier": "alt",
    "true_positive": 6,
    "false_positive": 0,
    "false_negative": 0,
    "true_positive_detections": [
        {
            "x": 286,
            "y": 248,
            "width": 26,
            "height": 26
        },
        {
            "x": 148,
            "y": 234,
            "width": 32,
            "height": 32
        },
        {
            "x": 508,
            "y": 269,
            "width": 37,
            "height": 37
        },
        {
            "x": 799,
            "y": 268,
            "width": 37,
            "height": 37
        },
        {
            "x": 741,
            "y": 280,
            "width": 44,
            "height": 44
        },
        {
            "x": 671,
            "y": 343,
            "width": 54,
            "height": 54
        }
    ]
}