{
    "classifier": "al2",
    "true_positive": 7,
    "false_positive": 0,
    "false_negative": 4,
    "true_positive_detections": [
        {
            "x": 104,
            "y": 236,
            "width": 26,
            "height": 26
        },
        {
            "x": 292,
            "y": 276,
            "width": 28,
            "height": 28
        },
        {
            "x": 494,
            "y": 296,
            "width": 37,
            "height": 37
        },
        {
            "x": 708,
            "y": 297,
            "width": 42,
            "height": 42
        },
        {
            "x": 104,
            "y": 299,
            "width": 49,
            "height": 49
        },
        {
            "x": 395,
            "y": 340,
            "width": 66,
            "height": 66
        },
        {
            "x": 729,
            "y": 362,
            "width": 64,
            "height": 64
        }
    ]
}