[
    {
        "color": "#00ff00",
        "x": 103,
        "y": 236,
        "width": 29,
        "height": 29
    },
    {
        "color": "#00ff00",
        "x": 291,
        "y": 275,
        "width": 29,
        "height": 29
    },
    {
        "color": "#00ff00",
        "x": 496,
        "y": 296,
        "width": 34,
        "height": 34
    },
    {
        "color": "#00ff00",
        "x": 709,
        "y": 298,
        "width": 40,
        "height": 40
    },
    {
        "color": "#00ff00",
        "x": 103,
        "y": 296,
        "width": 53,
        "height": 53
    },
    {
        "color": "#00ff00",
        "x": 396,
        "y": 340,
        "width": 67,
        "height": 67
    },
    {
        "color": "#00ff00",
        "x": 727,
        "y": 361,
        "width": 67,
        "height": 67
    }
]