[
    {
        "color": "#00ff00",
        "x": 1680,
        "y": 1883,
        "width": 125,
        "height": 125
    },
    {
        "color": "#00ff00",
        "x": 979,
        "y": 2069,
        "width": 181,
        "height": 181
    },
    {
        "color": "#00ff00",
        "x": 349,
        "y": 2172,
        "width": 247,
        "height": 247
    }
]