[
    {
        "color": "#00ff00",
        "x": 1880,
        "y": 1888,
        "width": 109,
        "height": 109
    },
    {
        "color": "#00ff00",
        "x": 1414,
        "y": 1924,
        "width": 145,
        "height": 145
    },
    {
        "color": "#00ff00",
        "x": 1003,
        "y": 2044,
        "width": 180,
        "height": 180
    },
    {
        "color": "#00ff00",
        "x": 180,
        "y": 2200,
        "width": 269,
        "height": 269
    }
]