{
    "classifier": "def",
    "true_positive": 4,
    "false_positive": 0,
    "false_negative": 0,
    "true_positive_detections": [
        {
            "x": 352,
            "y": 480,
            "width": 40,
            "height": 40
        },
        {
            "x": 248,
            "y": 510,
            "width": 48,
            "height": 48
        },
        {
            "x": 46,
            "y": 552,
            "width": 65,
            "height": 65
        },
        {
            "x": 470,
            "y": 470,
            "width": 29,
            "height": 29
        }
    ]
}