[
    {
        "color": "#00ff00",
        "x": 241,
        "y": 483,
        "width": 32,
        "height": 32
    },
    {
        "color": "#00ff00",
        "x": 289,
        "y": 503,
        "width": 41,
        "height": 41
    },
    {
        "color": "#00ff00",
        "x": 167,
        "y": 699,
        "width": 54,
        "height": 54
    },
    {
        "color": "#00ff00",
        "x": 449,
        "y": 582,
        "width": 68,
        "height": 68
    },
    {
        "color": "#00ff00",
        "x": 276,
        "y": 604,
        "width": 76,
        "height": 76
    }
]