{
    "classifier": "alt",
    "true_positive": 3,
    "false_positive": 0,
    "false_negative": 1,
    "true_positive_detections": [
        {
            "x": 352,
            "y": 479,
            "width": 41,
            "height": 41
        },
        {
            "x": 250,
            "y": 510,
            "width": 47,
            "height": 47
        },
        {
            "x": 47,
            "y": 552,
            "width": 64,
            "height": 64
        }
    ]
}