classifier,true_positive,false_positive,false_negative
def,6,0,0
al2,4,0,0
tre,1,0,3
al2,2,0,2
alt,4,0,0
al2,7,0,0
tre,4,0,3
al2,6,0,0
alt,7,0,0
alt,2,0,2
tre,3,0,1
tre,3,0,3
def,7,1,0
alt,6,0,0
def,2,0,2
def,4,0,0
def,7,0,1
al2,10,0,0
alt,10,0,0
al2,8,1,0
tre,4,0,4
al2,8,0,0
alt,8,1,0
tre,9,0,1
tre,4,0,4
def,8,1,0
alt,8,0,0
def,10,0,0
def,7,0,1
al2,8,0,0
tre,2,0,2
al2,3,0,1
alt,8,0,0
al2,8,0,0
tre,4,0,4
al2,8,0,0
alt,8,0,0
alt,3,0,1
tre,7,0,1
tre,4,0,4
def,8,0,0
alt,8,0,0
def,3,0,1
def,8,1,0
alt,8,0,0
def,7,1,0
al2,9,0,0
tre,4,0,4
al2,8,0,1
alt,8,0,1
tre,4,0,4
al2,7,0,1
def,8,0,1
alt,9,0,0
al2,7,0,1
tre,4,0,4
al2,7,1,0
tre,5,0,4
alt,7,0,1
al2,8,0,0
alt,8,0,0
tre,4,0,5
tre,5,0,2
def,7,1,1
alt,7,0,0
def,7,1,1
def,9,0,0
def,8,0,0
def,8,1,0
al2,8,0,0
alt,8,0,0
al2,7,0,1
tre,4,0,4
al2,8,0,0
alt,7,0,1
tre,6,0,2
tre,5,0,3
def,7,0,1
alt,8,1,0
def,8,0,0
def,7,0,1
al2,8,0,0
alt,8,0,0
al2,6,0,2
tre,1,0,7
al2,7,0,1
alt,7,0,1
tre,2,0,6
tre,6,0,2
def,7,1,1
alt,7,0,1
def,7,0,1
def,6,0,0
al2,9,0,0
alt,9,0,0
al2,7,0,0
tre,5,0,2
al2,6,0,0
alt,7,0,0
tre,7,0,2
tre,2,0,4
def,7,0,0
alt,6,0,0
def,9,0,0
def,7,1,0
al2,9,2,0
alt,9,1,0
al2,7,0,1
tre,5,0,3
al2,7,0,0
alt,8,0,0
tre,5,0,4
tre,2,0,5
def,8,0,0
alt,7,0,0
def,9,0,0
def,7,0,1
al2,9,0,0
tre,2,0,2
al2,4,0,0
alt,9,0,0
al2,7,0,0
tre,4,0,3
al2,7,0,1
alt,7,0,0
alt,4,0,0
tre,5,0,4
tre,3,0,5
def,7,0,0
alt,7,0,1
def,4,0,0
def,9,1,0
def,9,1,0
al2,8,0,1
alt,8,0,1
al2,7,0,1
tre,5,0,3
al2,9,0,0
alt,7,0,1
tre,6,0,3
tre,7,0,2
def,7,0,1
alt,9,0,0
def,8,0,1
def,8,0,0
al2,8,0,0
tre,0,0,3
al2,3,0,0
alt,8,1,0
al2,8,0,0
tre,5,0,3
al2,8,0,0
alt,8,0,0
alt,3,0,0
tre,8,0,0
tre,4,0,4
def,8,0,0
alt,8,0,0
def,2,0,1
def,8,0,0
def,6,0,5
al2,6,0,0
alt,6,0,0
al2,7,0,4
tre,3,0,8
al2,7,0,4
alt,7,0,4
tre,1,0,5
tre,3,0,8
def,7,0,4
alt,7,0,4
def,6,0,0
def,8,2,1
al2,2,0,2
alt,2,0,2
al2,8,0,1
tre,4,0,5
al2,8,0,1
alt,7,0,2
tre,1,0,3
tre,4,0,5
def,8,1,1
alt,8,0,1
def,2,0,2
def,4,0,3
al2,7,0,3
tre,2,0,8
al2,3,0,4
alt,7,0,3
tre,1,0,6
def,7,0,3
alt,3,0,4
def,5,0,3
al2,2,0,1
tre,1,0,2
al2,5,1,3
alt,2,0,1
tre,2,0,6
def,2,0,1
alt,6,0,2
def,6,0,5
al2,6,0,0
alt,4,0,2
al2,6,0,5
tre,1,0,10
al2,5,1,6
alt,6,0,5
tre,1,0,5
tre,2,0,9
def,6,0,5
alt,5,1,6
def,6,0,0
def,4,0,7
al2,4,0,6
alt,3,0,7
al2,3,0,1
tre,1,0,3
al2,5,0,6
alt,3,0,1
tre,0,0,10
tre,0,0,11
def,2,0,2
alt,4,0,7
def,4,0,6
def,6,0,0
al2,6,0,0
alt,6,0,0
al2,3,0,0
tre,0,0,3
al2,6,0,0
alt,3,0,0
tre,2,0,4
tre,1,0,5
def,3,0,0
alt,6,0,0
def,6,0,0
def,8,0,1
al2,8,0,1
tre,2,0,7
al2,8,0,1
alt,9,0,0
tre,3,0,6
def,9,1,0
alt,7,0,2
def,5,1,3
al2,1,0,1
alt,1,0,1
al2,5,0,3
tre,2,0,6
al2,5,0,3
alt,5,0,3
tre,0,0,2
tre,3,0,5
def,4,1,4
alt,5,0,3
def,1,1,1
def,6,0,4
al2,6,0,4
alt,6,0,4
al2,3,0,1
tre,1,0,3
al2,6,0,4
alt,3,0,1
tre,2,0,8
tre,2,0,8
def,2,0,2
alt,6,0,4
def,6,0,4
def,5,1,2
al2,4,0,0
tre,0,0,3
al2,2,0,1
alt,4,0,0
al2,5,0,1
tre,1,0,5
al2,5,0,2
alt,5,0,1
alt,2,0,1
tre,2,0,2
tre,2,0,5
def,5,0,1
alt,5,0,2
def,2,0,1
def,3,0,1
def,4,0,1
al2,4,0,0
alt,4,0,0
al2,5,0,1
tre,2,0,4
al2,4,0,1
alt,4,0,2
tre,2,0,2
tre,4,0,1
def,6,0,0
alt,5,0,0
def,4,0,0
def,6,0,1
al2,4,0,1
tre,0,0,3
al2,0,0,3
alt,5,0,0
al2,7,0,2
tre,1,0,8
al2,5,0,2
alt,6,0,3
alt,2,0,1
tre,1,0,4
tre,2,0,5
def,6,0,3
alt,5,0,2
def,1,0,2
def,3,0,2
def,5,0,3
al2,5,0,1
tre,1,0,5
al2,4,0,2
alt,5,0,1
al2,7,0,1
tre,0,0,8
al2,5,0,3
alt,6,0,2
alt,5,0,1
tre,3,0,3
tre,1,0,7
def,7,0,1
alt,4,0,4
def,4,0,2
def,5,0,1
def,6,1,0
al2,3,0,3
tre,1,0,3
al2,4,0,0
alt,2,0,4
al2,6,0,2
tre,5,0,3
al2,6,0,0
alt,6,0,2
alt,4,0,0
tre,0,0,6
tre,3,0,3
def,6,0,2
alt,6,0,0
def,3,0,1
def,2,0,4
def,6,0,3
al2,5,0,1
tre,1,0,1
al2,1,0,1
alt,6,0,0
al2,5,0,4
tre,2,0,7
al2,7,0,2
alt,4,0,5
alt,1,0,1
tre,0,0,6
tre,0,0,9
def,4,0,5
alt,5,0,4
def,1,0,1
def,5,0,1
def,5,0,1
al2,5,0,4
alt,5,0,4
al2,3,0,2
tre,2,0,3
al2,5,0,1
alt,3,0,2
tre,1,0,8
tre,3,0,3
def,3,0,2
alt,5,0,1
def,5,1,4
def,5,0,3
al2,3,0,3
alt,3,0,3
al2,7,0,1
tre,0,0,8
al2,5,0,3
alt,7,0,1
tre,1,0,5
tre,0,0,8
def,7,0,1
alt,4,0,4
def,4,0,2
def,5,0,3
al2,3,0,0
alt,3,0,0
al2,6,0,2
tre,2,0,6
al2,5,1,3
alt,6,0,2
tre,1,0,2
tre,1,0,7
def,6,0,2
alt,5,0,3
def,3,0,0
def,4,0,0
al2,5,0,3
tre,0,0,3
al2,2,0,1
alt,5,0,3
al2,7,0,1
tre,1,0,7
al2,4,0,0
alt,6,0,2
alt,2,0,1
tre,4,0,4
tre,3,0,1
def,7,0,1
alt,4,0,0
def,2,0,1
def,5,0,3
def,5,0,4
al2,4,0,1
tre,0,0,6
al2,1,0,5
alt,3,0,2
al2,6,0,0
tre,0,0,6
al2,5,0,4
alt,6,0,0
alt,2,0,4
tre,2,0,3
tre,0,0,9
def,6,0,0
alt,5,0,4
def,1,1,5
def,4,0,1
def,6,0,1
al2,6,0,3
alt,6,1,3
al2,3,0,0
tre,0,0,3
al2,6,0,1
alt,2,0,1
tre,3,0,6
tre,2,0,5
def,3,0,0
alt,6,0,1
def,6,1,3
def,6,0,2
al2,1,0,0
alt,1,0,0
al2,5,0,1
tre,1,0,5
al2,7,0,1
alt,5,0,1
tre,0,0,1
tre,3,0,5
def,5,0,1
alt,7,0,1
def,1,0,0
def,6,0,2
al2,4,0,1
alt,4,0,1
al2,4,0,0
tre,2,0,2
al2,6,0,2
alt,4,0,0
tre,1,1,4
tre,3,0,5
def,4,0,0
alt,6,0,2
def,3,1,2
def,4,0,0
al2,5,0,0
alt,5,0,0
al2,4,0,2
tre,3,0,3
al2,4,0,0
alt,5,0,1
tre,3,0,2
tre,1,0,3
def,5,1,1
alt,4,0,0
def,5,0,0
def,5,0,2
al2,6,0,1
alt,6,0,1
al2,4,0,0
tre,1,0,3
al2,5,0,2
alt,4,0,0
tre,2,0,5
tre,4,0,3
def,4,0,0
alt,5,0,2
def,6,0,1
def,5,0,4
al2,5,0,4
alt,5,0,4
al2,5,0,1
tre,3,0,3
al2,5,0,4
alt,5,0,1
tre,1,0,8
tre,2,0,7
def,5,1,1
alt,5,0,4
def,4,0,5
alt,3,0,1
def,3,0,3
al2,4,0,4
tre,4,0,2
tre,1,0,3
al2,5,0,1
alt,4,0,4
al2,4,0,0
tre,3,0,1
al2,3,0,3
alt,4,0,0
al2,4,0,0
alt,6,0,0
tre,3,0,5
tre,2,0,4
def,4,0,0
alt,3,0,3
def,5,0,1
def,4,1,4
def,3,0,1
def,8,0,3
al2,8,0,4
tre,1,0,5
al2,6,0,0
alt,8,0,4
al2,2,0,0
tre,1,0,1
al2,8,0,3
alt,2,0,0
alt,6,0,0
tre,2,0,10
tre,3,0,8
def,2,0,0
alt,7,0,4
def,6,0,0
def,9,0,3
def,6,0,2
al2,7,0,2
alt,7,0,2
al2,4,0,1
tre,0,0,5
al2,5,0,3
alt,4,0,1
tre,2,0,7
tre,2,0,6
def,4,0,1
alt,5,0,3
def,7,0,2
alt,4,0,0
def,3,0,1
al2,3,0,1
tre,2,0,3
tre,2,0,2
al2,4,0,1
alt,3,0,1
al2,2,0,1
tre,0,0,3
al2,3,0,1
alt,3,0,0
al2,4,1,0
alt,4,0,1
tre,1,0,3
tre,1,0,3
def,3,0,0
alt,3,0,1
def,4,0,1
def,4,0,0
def,3,2,1
def,4,0,3
al2,3,0,2
alt,3,0,2
al2,5,0,1
tre,2,0,4
al2,6,0,1
alt,5,1,1
tre,1,0,4
tre,3,0,4
def,5,0,1
alt,6,0,1
def,3,0,2
def,5,0,0
al2,6,0,0
tre,2,0,4
al2,6,0,0
alt,6,0,0
al2,5,0,0
alt,6,0,0
tre,3,0,3
tre,3,0,2
alt,5,0,0
def,6,0,0
def,5,1,1
def,7,0,3
al2,6,0,0
tre,3,0,10
al2,9,3,4
alt,6,0,0
al2,6,1,6
tre,4,0,8
al2,7,0,3
alt,6,0,6
alt,9,0,4
tre,3,0,3
tre,1,0,9
def,6,2,6
alt,7,0,3
def,10,2,3
def,6,1,0
def,4,0,6
al2,4,0,3
alt,4,0,3
al2,2,0,0
tre,1,0,1
al2,5,0,5
alt,2,0,0
tre,0,0,7
tre,2,0,8
def,2,0,0
alt,4,0,6
def,3,0,4
def,5,0,5
al2,6,0,6
tre,1,0,2
al2,2,0,1
alt,7,0,5
al2,2,0,0
tre,0,0,2
al2,4,0,6
alt,2,0,0
alt,2,0,1
tre,0,0,12
tre,0,0,10
def,2,0,0
alt,4,0,6
def,2,0,1
def,5,0,7
def,3,0,1
al2,3,0,5
tre,1,0,9
al2,6,0,4
alt,3,0,5
al2,2,0,2
tre,0,0,4
al2,2,0,2
alt,3,0,1
alt,7,0,3
tre,0,0,8
tre,0,0,4
def,2,0,2
alt,3,0,1
def,5,0,5
def,2,0,6
def,8,0,6
al2,7,0,6
alt,8,0,5
al2,5,0,3
tre,2,0,6
al2,8,0,6
alt,5,0,3
tre,1,0,12
tre,2,0,12
def,5,0,3
alt,8,0,6
def,7,0,6
alt,3,0,0
def,5,0,3
al2,3,0,2
tre,0,0,3
tre,1,0,2
al2,1,0,2
alt,3,0,2
al2,5,0,3
tre,1,0,7
al2,4,0,4
alt,5,0,3
al2,3,0,0
alt,1,0,2
tre,3,0,2
tre,0,0,8
def,5,1,3
alt,4,0,4
def,1,0,2
def,3,0,2
def,3,0,0
def,5,0,1
al2,5,0,2
alt,4,0,3
al2,6,0,1
tre,2,0,5
al2,6,0,0
alt,6,0,1
tre,1,0,6
tre,1,0,5
def,7,0,0
alt,5,0,1
def,5,0,2
def,6,0,7
al2,4,0,5
tre,1,0,8
al2,4,0,9
alt,4,0,5
tre,0,0,13
def,6,1,3
alt,4,0,9
alt,1,0,0
def,3,0,3
al2,5,0,3
tre,1,0,6
tre,1,0,0
al2,3,0,4
alt,5,0,3
al2,4,0,2
tre,0,0,6
al2,4,0,2
alt,4,0,2
al2,1,0,0
alt,3,0,4
tre,0,0,8
tre,0,0,6
def,3,0,3
alt,4,0,2
def,2,0,5
def,3,0,5
def,1,0,0
def,4,0,5
al2,2,0,2
alt,2,0,2
al2,6,0,6
tre,0,0,12
al2,4,0,5
alt,8,0,4
tre,1,0,3
tre,2,0,7
def,7,0,5
alt,5,0,4
def,2,0,2
def,5,0,5
al2,6,0,4
tre,1,0,11
al2,7,0,5
alt,6,0,4
al2,2,0,3
tre,0,0,5
al2,5,0,5
alt,1,0,4
alt,7,0,5
tre,1,0,9
tre,2,0,8
def,1,0,4
alt,5,0,5
def,7,1,5
def,4,0,6
def,4,0,5
al2,4,0,1
tre,0,0,5
al2,5,0,4
alt,4,0,1
tre,1,0,8
def,4,0,1
alt,5,0,4
def,2,0,0
al2,1,0,2
tre,1,0,2
al2,2,0,0
alt,3,0,0
tre,1,0,1
def,1,0,2
alt,2,0,0
def,2,0,0
al2,2,0,0
tre,0,0,2
al2,2,0,0
alt,2,0,0
tre,1,0,1
def,2,1,0
alt,2,0,0
