[
    {
        "color": "#00ff00",
        "x": 2389,
        "y": 595,
        "width": 143,
        "height": 143
    },
    {
        "color": "#00ff00",
        "x": 1487,
        "y": 679,
        "width": 133,
        "height": 133
    },
    {
        "color": "#00ff00",
        "x": 783,
        "y": 683,
        "width": 140,
        "height": 140
    },
    {
        "color": "#00ff00",
        "x": 1603,
        "y": 815,
        "width": 187,
        "height": 187
    },
    {
        "color": "#00ff00",
        "x": 2076,
        "y": 851,
        "width": 186,
        "height": 186
    },
    {
        "color": "#00ff00",
        "x": 1111,
        "y": 861,
        "width": 177,
        "height": 177
    },
    {
        "color": "#00ff00",
        "x": 237,
        "y": 977,
        "width": 278,
        "height": 278
    },
    {
        "color": "#00ff00",
        "x": 2635,
        "y": 985,
        "width": 264,
        "height": 264
    },
    {
        "color": "#00ff00",
        "x": 1143,
        "y": 1159,
        "width": 249,
        "height": 249
    }
]