[
    {
        "color": "#00ff00",
        "x": 450,
        "y": 202,
        "width": 43,
        "height": 43
    },
    {
        "color": "#00ff00",
        "x": 685,
        "y": 223,
        "width": 44,
        "height": 44
    },
    {
        "color": "#00ff00",
        "x": 639,
        "y": 275,
        "width": 43,
        "height": 43
    },
    {
        "color": "#00ff00",
        "x": 441,
        "y": 266,
        "width": 51,
        "height": 51
    },
    {
        "color": "#00ff00",
        "x": 325,
        "y": 343,
        "width": 72,
        "height": 72
    },
    {
        "color": "#00ff00",
        "x": 707,
        "y": 359,
        "width": 73,
        "height": 73
    },
    {
        "color": "#00ff00",
        "x": 675,
        "y": 467,
        "width": 112,
        "height": 112
    },
    {
        "color": "#00ff00",
        "x": 176,
        "y": 481,
        "width": 97,
        "height": 97
    }
]