[
    {
        "color": "#00ff00",
        "x": 418,
        "y": 257,
        "width": 43,
        "height": 43
    },
    {
        "color": "#00ff00",
        "x": 636,
        "y": 272,
        "width": 41,
        "height": 41
    },
    {
        "color": "#00ff00",
        "x": 332,
        "y": 307,
        "width": 48,
        "height": 48
    },
    {
        "color": "#00ff00",
        "x": 589,
        "y": 312,
        "width": 48,
        "height": 48
    },
    {
        "color": "#00ff00",
        "x": 615,
        "y": 367,
        "width": 75,
        "height": 75
    },
    {
        "color": "#00ff00",
        "x": 276,
        "y": 364,
        "width": 65,
        "height": 65
    },
    {
        "color": "#00ff00",
        "x": 695,
        "y": 453,
        "width": 90,
        "height": 90
    },
    {
        "color": "#00ff00",
        "x": 19,
        "y": 476,
        "width": 105,
        "height": 105
    },
    {
        "color": "#00ff00",
        "x": 96,
        "y": 698,
        "width": 60,
        "height": 60
    }
]