[
    {
        "color": "#00ff00",
        "x": 912,
        "y": 827,
        "width": 119,
        "height": 119
    },
    {
        "color": "#00ff00",
        "x": 264,
        "y": 860,
        "width": 120,
        "height": 120
    },
    {
        "color": "#00ff00",
        "x": 1097,
        "y": 944,
        "width": 186,
        "height": 186
    },
    {
        "color": "#00ff00",
        "x": 3255,
        "y": 921,
        "width": 144,
        "height": 144
    },
    {
        "color": "#00ff00",
        "x": 1915,
        "y": 987,
        "width": 115,
        "height": 115
    },
    {
        "color": "#00ff00",
        "x": 2838,
        "y": 1102,
        "width": 168,
        "height": 168
    },
    {
        "color": "#00ff00",
        "x": 2323,
        "y": 1247,
        "width": 191,
        "height": 191
    }
]