[
    {
        "color": "#00ff00",
        "x": 1563,
        "y": 997,
        "width": 160,
        "height": 160
    },
    {
        "color": "#00ff00",
        "x": 881,
        "y": 1128,
        "width": 216,
        "height": 216
    },
    {
        "color": "#00ff00",
        "x": 2401,
        "y": 1327,
        "width": 203,
        "height": 203
    }
]