{
    "classifier": "def",
    "true_positive": 5,
    "false_positive": 0,
    "false_negative": 3,
    "true_positive_detections": [
        {
            "x": 240,
            "y": 209,
            "width": 33,
            "height": 33
        },
        {
            "x": 282,
            "y": 236,
            "width": 50,
            "height": 50
        },
        {
            "x": 716,
            "y": 280,
            "width": 46,
            "height": 46
        },
        {
            "x": 80,
            "y": 180,
            "width": 26,
            "height": 26
        },
        {
            "x": 823,
            "y": 232,
            "width": 38,
            "height": 38
        }
    ]
}