{
    "classifier": "al2",
    "true_positive": 5,
    "false_positive": 0,
    "false_negative": 3,
    "true_positive_detections": [
        {
            "x": 65,
            "y": 214,
            "width": 32,
            "height": 32
        },
        {
            "x": 228,
            "y": 208,
            "width": 28,
            "height": 28
        },
        {
            "x": 274,
            "y": 236,
            "width": 48,
            "height": 48
        },
        {
            "x": 708,
            "y": 274,
            "width": 45,
            "height": 45
        },
        {
            "x": 581,
            "y": 312,
            "width": 48,
            "height": 48
        }
    ]
}