[
    {
        "color": "#00ff00",
        "x": 311,
        "y": 202,
        "width": 32,
        "height": 32
    },
    {
        "color": "#00ff00",
        "x": 746,
        "y": 230,
        "width": 39,
        "height": 39
    },
    {
        "color": "#00ff00",
        "x": 283,
        "y": 242,
        "width": 41,
        "height": 41
    },
    {
        "color": "#00ff00",
        "x": 569,
        "y": 253,
        "width": 40,
        "height": 40
    },
    {
        "color": "#00ff00",
        "x": 913,
        "y": 278,
        "width": 56,
        "height": 56
    },
    {
        "color": "#00ff00",
        "x": 355,
        "y": 284,
        "width": 67,
        "height": 67
    },
    {
        "color": "#00ff00",
        "x": 194,
        "y": 289,
        "width": 71,
        "height": 71
    },
    {
        "color": "#00ff00",
        "x": 706,
        "y": 301,
        "width": 72,
        "height": 72
    }
]