[
    {
        "color": "#00ff00",
        "x": 285,
        "y": 192,
        "width": 33,
        "height": 33
    },
    {
        "color": "#00ff00",
        "x": 720,
        "y": 215,
        "width": 36,
        "height": 36
    },
    {
        "color": "#00ff00",
        "x": 543,
        "y": 239,
        "width": 39,
        "height": 39
    },
    {
        "color": "#00ff00",
        "x": 257,
        "y": 232,
        "width": 43,
        "height": 43
    },
    {
        "color": "#00ff00",
        "x": 883,
        "y": 257,
        "width": 59,
        "height": 59
    },
    {
        "color": "#00ff00",
        "x": 326,
        "y": 265,
        "width": 71,
        "height": 71
    },
    {
        "color": "#00ff00",
        "x": 159,
        "y": 279,
        "width": 76,
        "height": 76
    },
    {
        "color": "#00ff00",
        "x": 674,
        "y": 284,
        "width": 67,
        "height": 67
    },
    {
        "color": "#00ff00",
        "x": 174,
        "y": 392,
        "width": 54,
        "height": 54
    }
]