[
    {
        "color": "#00ff00",
        "x": 1154,
        "y": 1301,
        "width": 99,
        "height": 99,
        "x_center": 1203,
        "y_center": 1350
    },
    {
        "color": "#00ff00",
        "x": 1530,
        "y": 1541,
        "width": 135,
        "height": 135,
        "x_center": 1597,
        "y_center": 1608
    },
    {
        "color": "#00ff00",
        "x": 775,
        "y": 1603,
        "width": 137,
        "height": 137,
        "x_center": 843,
        "y_center": 1671
    },
    {
        "color": "#00ff00",
        "x": 519,
        "y": 1704,
        "width": 154,
        "height": 154,
        "x_center": 596,
        "y_center": 1781
    },
    {
        "color": "#00ff00",
        "x": 1670,
        "y": 1718,
        "width": 177,
        "height": 177,
        "x_center": 1758,
        "y_center": 1806
    },
    {
        "color": "#00ff00",
        "x": 1772,
        "y": 1936,
        "width": 273,
        "height": 273,
        "x_center": 1908,
        "y_center": 2072
    }
]