[
    {
        "color": "#00ff00",
        "x": 1447,
        "y": 1150,
        "width": 98,
        "height": 98,
        "x_center": 1496,
        "y_center": 1199
    },
    {
        "color": "#00ff00",
        "x": 1008,
        "y": 1471,
        "width": 107,
        "height": 107,
        "x_center": 1061,
        "y_center": 1524
    },
    {
        "color": "#00ff00",
        "x": 1680,
        "y": 1449,
        "width": 126,
        "height": 126,
        "x_center": 1743,
        "y_center": 1512
    },
    {
        "color": "#00ff00",
        "x": 744,
        "y": 1534,
        "width": 151,
        "height": 151,
        "x_center": 819,
        "y_center": 1609
    },
    {
        "color": "#00ff00",
        "x": 1803,
        "y": 1620,
        "width": 161,
        "height": 161,
        "x_center": 1883,
        "y_center": 1700
    },
    {
        "color": "#00ff00",
        "x": 306,
        "y": 1841,
        "width": 210,
        "height": 210,
        "x_center": 411,
        "y_center": 1946
    }
]