{
    "classifier": "alt",
    "true_positive": 6,
    "false_positive": 0,
    "false_negative": 1,
    "true_positive_detections": [
        {
            "x": 288,
            "y": 325,
            "width": 25,
            "height": 25
        },
        {
            "x": 384,
            "y": 385,
            "width": 34,
            "height": 34
        },
        {
            "x": 193,
            "y": 400,
            "width": 36,
            "height": 36
        },
        {
            "x": 127,
            "y": 423,
            "width": 45,
            "height": 45
        },
        {
            "x": 416,
            "y": 428,
            "width": 47,
            "height": 47
        },
        {
            "x": 444,
            "y": 484,
            "width": 69,
            "height": 69
        }
    ]
}