[
    {
        "color": "#00ff00",
        "x": 287,
        "y": 325,
        "width": 27,
        "height": 27
    },
    {
        "color": "#00ff00",
        "x": 384,
        "y": 386,
        "width": 33,
        "height": 33
    },
    {
        "color": "#00ff00",
        "x": 194,
        "y": 402,
        "width": 32,
        "height": 32
    },
    {
        "color": "#00ff00",
        "x": 128,
        "y": 425,
        "width": 41,
        "height": 41
    },
    {
        "color": "#00ff00",
        "x": 414,
        "y": 427,
        "width": 50,
        "height": 50
    },
    {
        "color": "#00ff00",
        "x": 77,
        "y": 474,
        "width": 57,
        "height": 57
    },
    {
        "color": "#00ff00",
        "x": 443,
        "y": 485,
        "width": 68,
        "height": 68
    }
]