[
    {
        "color": "#00ff00",
        "x": 3156,
        "y": 994,
        "width": 160,
        "height": 160
    },
    {
        "color": "#00ff00",
        "x": 2159,
        "y": 1026,
        "width": 97,
        "height": 97
    },
    {
        "color": "#00ff00",
        "x": 2770,
        "y": 1031,
        "width": 117,
        "height": 117
    },
    {
        "color": "#00ff00",
        "x": 1628,
        "y": 1266,
        "width": 192,
        "height": 192
    },
    {
        "color": "#00ff00",
        "x": 3219,
        "y": 1270,
        "width": 262,
        "height": 262
    }
]