[
    {
        "color": "#00ff00",
        "x": 3221,
        "y": 975,
        "width": 154,
        "height": 154
    },
    {
        "color": "#00ff00",
        "x": 549,
        "y": 1086,
        "width": 221,
        "height": 221
    },
    {
        "color": "#00ff00",
        "x": 2202,
        "y": 1007,
        "width": 95,
        "height": 95
    },
    {
        "color": "#00ff00",
        "x": 2838,
        "y": 1010,
        "width": 118,
        "height": 118
    },
    {
        "color": "#00ff00",
        "x": 1699,
        "y": 1224,
        "width": 205,
        "height": 205
    },
    {
        "color": "#00ff00",
        "x": 3297,
        "y": 1265,
        "width": 267,
        "height": 267
    }
]