{
    "classifier": "def",
    "true_positive": 1,
    "false_positive": 1,
    "false_negative": 1,
    "true_positive_detections": [
        {
            "x": 694,
            "y": 299,
            "width": 54,
            "height": 54
        }
    ]
}