[
    {
        "color": "#00ff00",
        "x": 903,
        "y": 1024,
        "width": 86,
        "height": 86
    },
    {
        "color": "#00ff00",
        "x": 2300,
        "y": 1040,
        "width": 120,
        "height": 120
    },
    {
        "color": "#00ff00",
        "x": 1299,
        "y": 1313,
        "width": 209,
        "height": 209
    },
    {
        "color": "#00ff00",
        "x": 2049,
        "y": 1187,
        "width": 164,
        "height": 164
    },
    {
        "color": "#00ff00",
        "x": 2982,
        "y": 1272,
        "width": 183,
        "height": 183
    }
]