[
    {
        "color": "#00ff00",
        "x": 676,
        "y": 250,
        "width": 32,
        "height": 32
    },
    {
        "color": "#00ff00",
        "x": 466,
        "y": 258,
        "width": 29,
        "height": 29
    },
    {
        "color": "#00ff00",
        "x": 396,
        "y": 296,
        "width": 41,
        "height": 41
    },
    {
        "color": "#00ff00",
        "x": 623,
        "y": 305,
        "width": 50,
        "height": 50
    },
    {
        "color": "#00ff00",
        "x": 189,
        "y": 325,
        "width": 62,
        "height": 62
    }
]