[
    {
        "color": "#00ff00",
        "x": 358,
        "y": 244,
        "width": 27,
        "height": 27
    },
    {
        "color": "#00ff00",
        "x": 590,
        "y": 250,
        "width": 27,
        "height": 27
    },
    {
        "color": "#00ff00",
        "x": 829,
        "y": 269,
        "width": 29,
        "height": 29
    },
    {
        "color": "#00ff00",
        "x": 541,
        "y": 271,
        "width": 30,
        "height": 30
    },
    {
        "color": "#00ff00",
        "x": 229,
        "y": 261,
        "width": 44,
        "height": 44
    },
    {
        "color": "#00ff00",
        "x": 384,
        "y": 280,
        "width": 50,
        "height": 50
    }
]