[
    {
        "color": "#00ff00",
        "x": 1751,
        "y": 787,
        "width": 95,
        "height": 95
    },
    {
        "color": "#00ff00",
        "x": 2059,
        "y": 816,
        "width": 89,
        "height": 89
    },
    {
        "color": "#00ff00",
        "x": 2293,
        "y": 1125,
        "width": 116,
        "height": 116
    },
    {
        "color": "#00ff00",
        "x": 1350,
        "y": 1212,
        "width": 179,
        "height": 179
    },
    {
        "color": "#00ff00",
        "x": 2430,
        "y": 1305,
        "width": 156,
        "height": 156
    }
]