[
    {
        "color": "#00ff00",
        "x": 1750,
        "y": 788,
        "width": 93,
        "height": 93,
        "x_center": 1796,
        "y_center": 834
    },
    {
        "color": "#00ff00",
        "x": 2060,
        "y": 817,
        "width": 86,
        "height": 86,
        "x_center": 2103,
        "y_center": 860
    },
    {
        "color": "#00ff00",
        "x": 2295,
        "y": 1127,
        "width": 114,
        "height": 114,
        "x_center": 2352,
        "y_center": 1184
    },
    {
        "color": "#00ff00",
        "x": 2426,
        "y": 1301,
        "width": 156,
        "height": 156,
        "x_center": 2504,
        "y_center": 1379
    },
    {
        "color": "#00ff00",
        "x": 1343,
        "y": 1208,
        "width": 187,
        "height": 187,
        "x_center": 1436,
        "y_center": 1301
    }
]