{
    "classifier": "al2",
    "true_positive": 5,
    "false_positive": 0,
    "false_negative": 3,
    "true_positive_detections": [
        {
            "x": 514,
            "y": 204,
            "width": 24,
            "height": 24
        },
        {
            "x": 438,
            "y": 196,
            "width": 24,
            "height": 24
        },
        {
            "x": 572,
            "y": 280,
            "width": 31,
            "height": 31
        },
        {
            "x": 336,
            "y": 301,
            "width": 48,
            "height": 48
        },
        {
            "x": 606,
            "y": 324,
            "width": 42,
            "height": 42
        }
    ]
}