[
    {
        "color": "#00ff00",
        "x": 1267,
        "y": 1720,
        "width": 157,
        "height": 157
    },
    {
        "color": "#00ff00",
        "x": 633,
        "y": 1858,
        "width": 208,
        "height": 208
    },
    {
        "color": "#00ff00",
        "x": 2019,
        "y": 2931,
        "width": 100,
        "height": 100
    }
]