[
    {
        "color": "#00ff00",
        "x": 3131,
        "y": 1076,
        "width": 94,
        "height": 94
    },
    {
        "color": "#00ff00",
        "x": 1507,
        "y": 1141,
        "width": 130,
        "height": 130
    },
    {
        "color": "#00ff00",
        "x": 1549,
        "y": 1347,
        "width": 204,
        "height": 204
    },
    {
        "color": "#00ff00",
        "x": 619,
        "y": 1204,
        "width": 125,
        "height": 125
    },
    {
        "color": "#00ff00",
        "x": 1396,
        "y": 1269,
        "width": 136,
        "height": 136
    },
    {
        "color": "#00ff00",
        "x": 431,
        "y": 1334,
        "width": 159,
        "height": 159
    }
]