[
    {
        "color": "#00ff00",
        "x": 1126,
        "y": 1628,
        "width": 115,
        "height": 115,
        "x_center": 1183,
        "y_center": 1685
    },
    {
        "color": "#00ff00",
        "x": 1155,
        "y": 2017,
        "width": 169,
        "height": 169,
        "x_center": 1239,
        "y_center": 2101
    }
]