[
    {
        "color": "#00ff00",
        "x": 514,
        "y": 222,
        "width": 26,
        "height": 26
    },
    {
        "color": "#00ff00",
        "x": 593,
        "y": 228,
        "width": 25,
        "height": 25
    },
    {
        "color": "#00ff00",
        "x": 478,
        "y": 234,
        "width": 27,
        "height": 27
    },
    {
        "color": "#00ff00",
        "x": 614,
        "y": 237,
        "width": 31,
        "height": 31
    },
    {
        "color": "#00ff00",
        "x": 166,
        "y": 296,
        "width": 63,
        "height": 63
    }
]