{
    "classifier": "al2",
    "true_positive": 4,
    "false_positive": 0,
    "false_negative": 6,
    "true_positive_detections": [
        {
            "x": 390,
            "y": 253,
            "width": 26,
            "height": 26
        },
        {
            "x": 585,
            "y": 264,
            "width": 32,
            "height": 32
        },
        {
            "x": 142,
            "y": 328,
            "width": 60,
            "height": 60
        },
        {
            "x": 543,
            "y": 338,
            "width": 58,
            "height": 58
        }
    ]
}