{
    "classifier": "al2",
    "true_positive": 6,
    "false_positive": 0,
    "false_negative": 4,
    "true_positive_detections": [
        {
            "x": 364,
            "y": 244,
            "width": 22,
            "height": 22
        },
        {
            "x": 207,
            "y": 248,
            "width": 24,
            "height": 24
        },
        {
            "x": 547,
            "y": 254,
            "width": 32,
            "height": 32
        },
        {
            "x": 302,
            "y": 263,
            "width": 30,
            "height": 30
        },
        {
            "x": 381,
            "y": 274,
            "width": 46,
            "height": 46
        },
        {
            "x": 778,
            "y": 284,
            "width": 44,
            "height": 44
        }
    ]
}