{
    "classifier": "al2",
    "true_positive": 3,
    "false_positive": 0,
    "false_negative": 5,
    "true_positive_detections": [
        {
            "x": 462,
            "y": 232,
            "width": 24,
            "height": 24
        },
        {
            "x": 542,
            "y": 260,
            "width": 40,
            "height": 40
        },
        {
            "x": 733,
            "y": 308,
            "width": 55,
            "height": 55
        }
    ]
}