[
    {
        "color": "#00ff00",
        "x": 1747,
        "y": 694,
        "width": 143,
        "height": 143
    },
    {
        "color": "#00ff00",
        "x": 2503,
        "y": 734,
        "width": 163,
        "height": 163
    },
    {
        "color": "#00ff00",
        "x": 767,
        "y": 766,
        "width": 137,
        "height": 137
    },
    {
        "color": "#00ff00",
        "x": 876,
        "y": 922,
        "width": 188,
        "height": 188
    },
    {
        "color": "#00ff00",
        "x": 1774,
        "y": 922,
        "width": 190,
        "height": 190
    },
    {
        "color": "#00ff00",
        "x": 2697,
        "y": 981,
        "width": 203,
        "height": 203
    },
    {
        "color": "#00ff00",
        "x": 70,
        "y": 1200,
        "width": 261,
        "height": 261
    },
    {
        "color": "#00ff00",
        "x": 1355,
        "y": 1260,
        "width": 262,
        "height": 262
    },
    {
        "color": "#00ff00",
        "x": 2037,
        "y": 1284,
        "width": 250,
        "height": 250
    },
    {
        "color": "#00ff00",
        "x": 2789,
        "y": 1300,
        "width": 287,
        "height": 287
    },
    {
        "color": "#00ff00",
        "x": 1629,
        "y": 1878,
        "width": 88,
        "height": 88
    }
]