{
    "classifier": "tre",
    "true_positive": 9,
    "false_positive": 0,
    "false_negative": 1,
    "true_positive_detections": [
        {
            "x": 821,
            "y": 240,
            "width": 56,
            "height": 56
        },
        {
            "x": 252,
            "y": 251,
            "width": 46,
            "height": 46
        },
        {
            "x": 288,
            "y": 302,
            "width": 63,
            "height": 63
        },
        {
            "x": 582,
            "y": 302,
            "width": 64,
            "height": 64
        },
        {
            "x": 887,
            "y": 322,
            "width": 66,
            "height": 66
        },
        {
            "x": 21,
            "y": 394,
            "width": 88,
            "height": 88
        },
        {
            "x": 444,
            "y": 413,
            "width": 88,
            "height": 88
        },
        {
            "x": 669,
            "y": 422,
            "width": 81,
            "height": 81
        },
        {
            "x": 918,
            "y": 428,
            "width": 92,
            "height": 92
        }
    ]
}