[
    {
        "color": "#00ff00",
        "x": 3386,
        "y": 848,
        "width": 57,
        "height": 57
    },
    {
        "color": "#00ff00",
        "x": 3388,
        "y": 780,
        "width": 58,
        "height": 58
    },
    {
        "color": "#00ff00",
        "x": 292,
        "y": 571,
        "width": 74,
        "height": 74
    },
    {
        "color": "#00ff00",
        "x": 533,
        "y": 569,
        "width": 77,
        "height": 77
    },
    {
        "color": "#00ff00",
        "x": 424,
        "y": 660,
        "width": 72,
        "height": 72
    },
    {
        "color": "#00ff00",
        "x": 2301,
        "y": 1095,
        "width": 122,
        "height": 122
    },
    {
        "color": "#00ff00",
        "x": 2499,
        "y": 1136,
        "width": 147,
        "height": 147
    },
    {
        "color": "#00ff00",
        "x": 1453,
        "y": 1230,
        "width": 189,
        "height": 189
    }
]