[
    {
        "color": "#00ff00",
        "x": 647,
        "y": 223,
        "width": 32,
        "height": 32
    },
    {
        "color": "#00ff00",
        "x": 475,
        "y": 233,
        "width": 37,
        "height": 37
    },
    {
        "color": "#00ff00",
        "x": 211,
        "y": 233,
        "width": 42,
        "height": 42
    },
    {
        "color": "#00ff00",
        "x": 829,
        "y": 245,
        "width": 51,
        "height": 51
    },
    {
        "color": "#00ff00",
        "x": 667,
        "y": 286,
        "width": 69,
        "height": 69
    },
    {
        "color": "#00ff00",
        "x": 264,
        "y": 283,
        "width": 79,
        "height": 79
    }
]