[
    {
        "color": "#00ff00",
        "x": 2541,
        "y": 1161,
        "width": 130,
        "height": 130,
        "x_center": 2606,
        "y_center": 1226
    },
    {
        "color": "#00ff00",
        "x": 3909,
        "y": 1133,
        "width": 149,
        "height": 149,
        "x_center": 3983,
        "y_center": 1207
    },
    {
        "color": "#00ff00",
        "x": 1197,
        "y": 1236,
        "width": 168,
        "height": 168,
        "x_center": 1281,
        "y_center": 1320
    },
    {
        "color": "#00ff00",
        "x": 2202,
        "y": 1337,
        "width": 195,
        "height": 195,
        "x_center": 2299,
        "y_center": 1434
    },
    {
        "color": "#00ff00",
        "x": 3189,
        "y": 2158,
        "width": 99,
        "height": 99,
        "x_center": 3238,
        "y_center": 2207
    }
]