{
    "classifier": "tre",
    "true_positive": 2,
    "false_positive": 0,
    "false_negative": 7,
    "true_positive_detections": [
        {
            "x": 158,
            "y": 346,
            "width": 57,
            "height": 57
        },
        {
            "x": 519,
            "y": 371,
            "width": 66,
            "height": 66
        }
    ]
}