{
    "classifier": "al2",
    "true_positive": 2,
    "false_positive": 0,
    "false_negative": 2,
    "true_positive_detections": [
        {
            "x": 298,
            "y": 308,
            "width": 45,
            "height": 45
        },
        {
            "x": 550,
            "y": 334,
            "width": 51,
            "height": 51
        }
    ]
}