{
    "classifier": "alt",
    "true_positive": 8,
    "false_positive": 0,
    "false_negative": 4,
    "true_positive_detections": [
        {
            "x": 502,
            "y": 252,
            "width": 25,
            "height": 25
        },
        {
            "x": 530,
            "y": 280,
            "width": 24,
            "height": 24
        },
        {
            "x": 358,
            "y": 281,
            "width": 28,
            "height": 28
        },
        {
            "x": 3,
            "y": 277,
            "width": 34,
            "height": 34
        },
        {
            "x": 308,
            "y": 279,
            "width": 48,
            "height": 48
        },
        {
            "x": 554,
            "y": 307,
            "width": 46,
            "height": 46
        },
        {
            "x": 666,
            "y": 355,
            "width": 58,
            "height": 58
        },
        {
            "x": 237,
            "y": 353,
            "width": 67,
            "height": 67
        }
    ]
}