[
    {
        "color": "#00ff00",
        "x": 502,
        "y": 251,
        "width": 28,
        "height": 28
    },
    {
        "color": "#00ff00",
        "x": 358,
        "y": 280,
        "width": 29,
        "height": 29
    },
    {
        "color": "#00ff00",
        "x": 3,
        "y": 278,
        "width": 34,
        "height": 34
    },
    {
        "color": "#00ff00",
        "x": 308,
        "y": 278,
        "width": 49,
        "height": 49
    },
    {
        "color": "#00ff00",
        "x": 549,
        "y": 302,
        "width": 57,
        "height": 57
    },
    {
        "color": "#00ff00",
        "x": 240,
        "y": 355,
        "width": 61,
        "height": 61
    },
    {
        "color": "#00ff00",
        "x": 666,
        "y": 355,
        "width": 59,
        "height": 59
    }
]