{
    "classifier": "al2",
    "true_positive": 8,
    "false_positive": 0,
    "false_negative": 0,
    "true_positive_detections": [
        {
            "x": 606,
            "y": 294,
            "width": 51,
            "height": 51
        },
        {
            "x": 362,
            "y": 306,
            "width": 50,
            "height": 50
        },
        {
            "x": 62,
            "y": 332,
            "width": 45,
            "height": 45
        },
        {
            "x": 340,
            "y": 375,
            "width": 66,
            "height": 66
        },
        {
            "x": 13,
            "y": 379,
            "width": 60,
            "height": 60
        },
        {
            "x": 698,
            "y": 396,
            "width": 56,
            "height": 56
        },
        {
            "x": 773,
            "y": 450,
            "width": 86,
            "height": 86
        },
        {
            "x": 256,
            "y": 514,
            "width": 88,
            "height": 88
        }
    ]
}