[
    {
        "color": "#00ff00",
        "x": 3857,
        "y": 546,
        "width": 33,
        "height": 33
    },
    {
        "color": "#00ff00",
        "x": 880,
        "y": 451,
        "width": 35,
        "height": 35
    },
    {
        "color": "#00ff00",
        "x": 3858,
        "y": 572,
        "width": 32,
        "height": 32
    },
    {
        "color": "#00ff00",
        "x": 1423,
        "y": 453,
        "width": 58,
        "height": 58
    },
    {
        "color": "#00ff00",
        "x": 1332,
        "y": 450,
        "width": 62,
        "height": 62
    },
    {
        "color": "#00ff00",
        "x": 739,
        "y": 462,
        "width": 64,
        "height": 64
    },
    {
        "color": "#00ff00",
        "x": 949,
        "y": 472,
        "width": 53,
        "height": 53
    },
    {
        "color": "#00ff00",
        "x": 741,
        "y": 490,
        "width": 57,
        "height": 57
    },
    {
        "color": "#00ff00",
        "x": 572,
        "y": 559,
        "width": 58,
        "height": 58
    },
    {
        "color": "#00ff00",
        "x": 1462,
        "y": 611,
        "width": 62,
        "height": 62
    },
    {
        "color": "#00ff00",
        "x": 565,
        "y": 533,
        "width": 65,
        "height": 65
    },
    {
        "color": "#00ff00",
        "x": 1329,
        "y": 557,
        "width": 60,
        "height": 60
    },
    {
        "color": "#00ff00",
        "x": 979,
        "y": 821,
        "width": 57,
        "height": 57
    },
    {
        "color": "#00ff00",
        "x": 1324,
        "y": 581,
        "width": 61,
        "height": 61
    },
    {
        "color": "#00ff00",
        "x": 1372,
        "y": 581,
        "width": 62,
        "height": 62
    },
    {
        "color": "#00ff00",
        "x": 573,
        "y": 828,
        "width": 55,
        "height": 55
    },
    {
        "color": "#00ff00",
        "x": 737,
        "y": 686,
        "width": 57,
        "height": 57
    },
    {
        "color": "#00ff00",
        "x": 1455,
        "y": 874,
        "width": 60,
        "height": 60
    },
    {
        "color": "#00ff00",
        "x": 568,
        "y": 774,
        "width": 64,
        "height": 64
    },
    {
        "color": "#00ff00",
        "x": 1326,
        "y": 742,
        "width": 54,
        "height": 54
    },
    {
        "color": "#00ff00",
        "x": 1456,
        "y": 744,
        "width": 60,
        "height": 60
    },
    {
        "color": "#00ff00",
        "x": 1326,
        "y": 606,
        "width": 63,
        "height": 63
    },
    {
        "color": "#00ff00",
        "x": 1414,
        "y": 609,
        "width": 65,
        "height": 65
    },
    {
        "color": "#00ff00",
        "x": 1324,
        "y": 632,
        "width": 63,
        "height": 63
    },
    {
        "color": "#00ff00",
        "x": 1412,
        "y": 635,
        "width": 63,
        "height": 63
    },
    {
        "color": "#00ff00",
        "x": 1461,
        "y": 636,
        "width": 64,
        "height": 64
    },
    {
        "color": "#00ff00",
        "x": 1533,
        "y": 876,
        "width": 66,
        "height": 66
    },
    {
        "color": "#00ff00",
        "x": 1457,
        "y": 689,
        "width": 64,
        "height": 64
    },
    {
        "color": "#00ff00",
        "x": 573,
        "y": 749,
        "width": 66,
        "height": 66
    },
    {
        "color": "#00ff00",
        "x": 571,
        "y": 795,
        "width": 80,
        "height": 80
    },
    {
        "color": "#00ff00",
        "x": 1448,
        "y": 949,
        "width": 67,
        "height": 67
    },
    {
        "color": "#00ff00",
        "x": 574,
        "y": 723,
        "width": 75,
        "height": 75
    },
    {
        "color": "#00ff00",
        "x": 1447,
        "y": 973,
        "width": 68,
        "height": 68
    },
    {
        "color": "#00ff00",
        "x": 1347,
        "y": 966,
        "width": 66,
        "height": 66
    },
    {
        "color": "#00ff00",
        "x": 3055,
        "y": 1103,
        "width": 131,
        "height": 131
    },
    {
        "color": "#00ff00",
        "x": 1933,
        "y": 1265,
        "width": 161,
        "height": 161
    },
    {
        "color": "#00ff00",
        "x": 2967,
        "y": 1284,
        "width": 212,
        "height": 212
    }
]