[
    {
        "color": "#00ff00",
        "x": 1119,
        "y": 957,
        "width": 55,
        "height": 55
    },
    {
        "color": "#00ff00",
        "x": 1759,
        "y": 1147,
        "width": 62,
        "height": 62
    },
    {
        "color": "#00ff00",
        "x": 2078,
        "y": 1165,
        "width": 82,
        "height": 82
    },
    {
        "color": "#00ff00",
        "x": 1467,
        "y": 1220,
        "width": 84,
        "height": 84
    },
    {
        "color": "#00ff00",
        "x": 829,
        "y": 1238,
        "width": 102,
        "height": 102
    },
    {
        "color": "#00ff00",
        "x": 2880,
        "y": 1343,
        "width": 107,
        "height": 107
    },
    {
        "color": "#00ff00",
        "x": 2204,
        "y": 1348,
        "width": 140,
        "height": 140
    },
    {
        "color": "#00ff00",
        "x": 1413,
        "y": 1424,
        "width": 142,
        "height": 142
    },
    {
        "color": "#00ff00",
        "x": 3653,
        "y": 1463,
        "width": 186,
        "height": 186
    },
    {
        "color": "#00ff00",
        "x": 3191,
        "y": 1537,
        "width": 229,
        "height": 229
    }
]