{
    "classifier": "tre",
    "true_positive": 2,
    "false_positive": 0,
    "false_negative": 8,
    "true_positive_detections": [
        {
            "x": 915,
            "y": 362,
            "width": 45,
            "height": 45
        },
        {
            "x": 798,
            "y": 386,
            "width": 58,
            "height": 58
        }
    ]
}