[
    {
        "color": "#00ff00",
        "x": 517,
        "y": 290,
        "width": 24,
        "height": 24
    },
    {
        "color": "#00ff00",
        "x": 720,
        "y": 336,
        "width": 27,
        "height": 27
    },
    {
        "color": "#00ff00",
        "x": 550,
        "y": 337,
        "width": 38,
        "height": 38
    },
    {
        "color": "#00ff00",
        "x": 352,
        "y": 355,
        "width": 38,
        "height": 38
    },
    {
        "color": "#00ff00",
        "x": 913,
        "y": 365,
        "width": 47,
        "height": 47
    },
    {
        "color": "#00ff00",
        "x": 797,
        "y": 384,
        "width": 55,
        "height": 55
    }
]