{
    "classifier": "tre",
    "true_positive": 2,
    "false_positive": 0,
    "false_negative": 8,
    "true_positive_detections": [
        {
            "x": 914,
            "y": 366,
            "width": 46,
            "height": 46
        },
        {
            "x": 798,
            "y": 384,
            "width": 56,
            "height": 56
        }
    ]
}