[
    {
        "color": "#00ff00",
        "x": 3130,
        "y": 924,
        "width": 223,
        "height": 223
    },
    {
        "color": "#00ff00",
        "x": 2072,
        "y": 847,
        "width": 118,
        "height": 118
    },
    {
        "color": "#00ff00",
        "x": 1066,
        "y": 844,
        "width": 127,
        "height": 127
    },
    {
        "color": "#00ff00",
        "x": 2884,
        "y": 886,
        "width": 113,
        "height": 113
    },
    {
        "color": "#00ff00",
        "x": 1167,
        "y": 995,
        "width": 152,
        "height": 152
    },
    {
        "color": "#00ff00",
        "x": 2166,
        "y": 994,
        "width": 151,
        "height": 151
    }
]