[
    {
        "color": "#00ff00",
        "x": 721,
        "y": 222,
        "width": 28,
        "height": 28
    },
    {
        "color": "#00ff00",
        "x": 267,
        "y": 212,
        "width": 29,
        "height": 29
    },
    {
        "color": "#00ff00",
        "x": 516,
        "y": 211,
        "width": 32,
        "height": 32
    },
    {
        "color": "#00ff00",
        "x": 540,
        "y": 248,
        "width": 40,
        "height": 40
    },
    {
        "color": "#00ff00",
        "x": 290,
        "y": 247,
        "width": 41,
        "height": 41
    }
]