[
    {
        "color": "#00ff00",
        "x": 2474,
        "y": 936,
        "width": 123,
        "height": 123
    },
    {
        "color": "#00ff00",
        "x": 1693,
        "y": 945,
        "width": 124,
        "height": 124
    },
    {
        "color": "#00ff00",
        "x": 2122,
        "y": 1106,
        "width": 224,
        "height": 224
    },
    {
        "color": "#00ff00",
        "x": 3501,
        "y": 1023,
        "width": 164,
        "height": 164
    }
]