[
    {
        "color": "#00ff00",
        "x": 2864,
        "y": 1132,
        "width": 230,
        "height": 230
    },
    {
        "color": "#00ff00",
        "x": 2509,
        "y": 1004,
        "width": 137,
        "height": 137
    },
    {
        "color": "#00ff00",
        "x": 1553,
        "y": 1004,
        "width": 151,
        "height": 151
    },
    {
        "color": "#00ff00",
        "x": 1268,
        "y": 1252,
        "width": 200,
        "height": 200
    }
]