[
    {
        "color": "#00ff00",
        "x": 569,
        "y": 251,
        "width": 24,
        "height": 24
    },
    {
        "color": "#00ff00",
        "x": 521,
        "y": 267,
        "width": 29,
        "height": 29
    },
    {
        "color": "#00ff00",
        "x": 440,
        "y": 284,
        "width": 46,
        "height": 46
    },
    {
        "color": "#00ff00",
        "x": 640,
        "y": 302,
        "width": 48,
        "height": 48
    },
    {
        "color": "#00ff00",
        "x": 218,
        "y": 324,
        "width": 61,
        "height": 61
    },
    {
        "color": "#00ff00",
        "x": 557,
        "y": 335,
        "width": 74,
        "height": 74
    }
]