[
    {
        "color": "#00ff00",
        "x": 2383,
        "y": 130,
        "width": 58,
        "height": 58
    },
    {
        "color": "#00ff00",
        "x": 1460,
        "y": 753,
        "width": 119,
        "height": 119
    },
    {
        "color": "#00ff00",
        "x": 1831,
        "y": 699,
        "width": 77,
        "height": 77
    },
    {
        "color": "#00ff00",
        "x": 2961,
        "y": 784,
        "width": 127,
        "height": 127
    },
    {
        "color": "#00ff00",
        "x": 712,
        "y": 880,
        "width": 145,
        "height": 145
    },
    {
        "color": "#00ff00",
        "x": 2909,
        "y": 918,
        "width": 155,
        "height": 155
    },
    {
        "color": "#00ff00",
        "x": 319,
        "y": 940,
        "width": 224,
        "height": 224
    },
    {
        "color": "#00ff00",
        "x": 2055,
        "y": 961,
        "width": 156,
        "height": 156
    },
    {
        "color": "#00ff00",
        "x": 2961,
        "y": 1130,
        "width": 252,
        "height": 252
    },
    {
        "color": "#00ff00",
        "x": 1744,
        "y": 1145,
        "width": 283,
        "height": 283
    }
]