[
    {
        "color": "#00ff00",
        "x": 3619,
        "y": 210,
        "width": 91,
        "height": 91
    },
    {
        "color": "#00ff00",
        "x": 854,
        "y": 834,
        "width": 101,
        "height": 101
    },
    {
        "color": "#00ff00",
        "x": 3444,
        "y": 980,
        "width": 144,
        "height": 144
    },
    {
        "color": "#00ff00",
        "x": 3279,
        "y": 1119,
        "width": 170,
        "height": 170
    },
    {
        "color": "#00ff00",
        "x": 2305,
        "y": 1093,
        "width": 141,
        "height": 141
    },
    {
        "color": "#00ff00",
        "x": 2429,
        "y": 1401,
        "width": 242,
        "height": 242
    },
    {
        "color": "#00ff00",
        "x": 2604,
        "y": 1813,
        "width": 56,
        "height": 56
    },
    {
        "color": "#00ff00",
        "x": 2558,
        "y": 1744,
        "width": 63,
        "height": 63
    }
]