[
    {
        "color": "#00ff00",
        "x": 1090,
        "y": 836,
        "width": 48,
        "height": 48
    },
    {
        "color": "#00ff00",
        "x": 1936,
        "y": 1038,
        "width": 116,
        "height": 116
    },
    {
        "color": "#00ff00",
        "x": 2598,
        "y": 1041,
        "width": 123,
        "height": 123
    },
    {
        "color": "#00ff00",
        "x": 3792,
        "y": 1049,
        "width": 119,
        "height": 119
    },
    {
        "color": "#00ff00",
        "x": 1770,
        "y": 1059,
        "width": 144,
        "height": 144
    },
    {
        "color": "#00ff00",
        "x": 633,
        "y": 1103,
        "width": 140,
        "height": 140
    },
    {
        "color": "#00ff00",
        "x": 2773,
        "y": 1128,
        "width": 186,
        "height": 186
    },
    {
        "color": "#00ff00",
        "x": 908,
        "y": 1252,
        "width": 224,
        "height": 224
    },
    {
        "color": "#00ff00",
        "x": 2962,
        "y": 1290,
        "width": 216,
        "height": 216
    },
    {
        "color": "#00ff00",
        "x": 1451,
        "y": 1311,
        "width": 217,
        "height": 217
    }
]