{
    "classifier": "alt",
    "true_positive": 9,
    "false_positive": 0,
    "false_negative": 0,
    "true_positive_detections": [
        {
            "x": 529,
            "y": 195,
            "width": 25,
            "height": 25
        },
        {
            "x": 374,
            "y": 209,
            "width": 29,
            "height": 29
        },
        {
            "x": 81,
            "y": 211,
            "width": 29,
            "height": 29
        },
        {
            "x": 289,
            "y": 242,
            "width": 41,
            "height": 41
        },
        {
            "x": 582,
            "y": 245,
            "width": 38,
            "height": 38
        },
        {
            "x": 731,
            "y": 242,
            "width": 43,
            "height": 43
        },
        {
            "x": 186,
            "y": 254,
            "width": 59,
            "height": 59
        },
        {
            "x": 912,
            "y": 297,
            "width": 62,
            "height": 62
        },
        {
            "x": 601,
            "y": 307,
            "width": 70,
            "height": 70
        }
    ]
}