[
    {
        "color": "#00ff00",
        "x": 1623,
        "y": 959,
        "width": 102,
        "height": 102
    },
    {
        "color": "#00ff00",
        "x": 1780,
        "y": 1026,
        "width": 108,
        "height": 108
    },
    {
        "color": "#00ff00",
        "x": 3621,
        "y": 1117,
        "width": 118,
        "height": 118
    },
    {
        "color": "#00ff00",
        "x": 2405,
        "y": 1247,
        "width": 230,
        "height": 230
    },
    {
        "color": "#00ff00",
        "x": 2720,
        "y": 2008,
        "width": 110,
        "height": 110
    }
]