[
    {
        "color": "#00ff00",
        "x": 1626,
        "y": 962,
        "width": 94,
        "height": 94
    },
    {
        "color": "#00ff00",
        "x": 1777,
        "y": 1023,
        "width": 112,
        "height": 112
    },
    {
        "color": "#00ff00",
        "x": 3623,
        "y": 1119,
        "width": 115,
        "height": 115
    }
]