[
    {
        "color": "#00ff00",
        "x": 1733,
        "y": 812,
        "width": 89,
        "height": 89
    },
    {
        "color": "#00ff00",
        "x": 113,
        "y": 799,
        "width": 102,
        "height": 102
    },
    {
        "color": "#00ff00",
        "x": 2234,
        "y": 827,
        "width": 89,
        "height": 89
    },
    {
        "color": "#00ff00",
        "x": 2377,
        "y": 879,
        "width": 108,
        "height": 108
    },
    {
        "color": "#00ff00",
        "x": 3562,
        "y": 869,
        "width": 121,
        "height": 121
    },
    {
        "color": "#00ff00",
        "x": 1654,
        "y": 890,
        "width": 115,
        "height": 115
    },
    {
        "color": "#00ff00",
        "x": 1173,
        "y": 1169,
        "width": 222,
        "height": 222
    },
    {
        "color": "#00ff00",
        "x": 2679,
        "y": 1149,
        "width": 270,
        "height": 270
    }
]