[
    {
        "color": "#00ff00",
        "x": 594,
        "y": 220,
        "width": 28,
        "height": 28
    },
    {
        "color": "#00ff00",
        "x": 556,
        "y": 205,
        "width": 27,
        "height": 27
    },
    {
        "color": "#00ff00",
        "x": 890,
        "y": 218,
        "width": 30,
        "height": 30
    },
    {
        "color": "#00ff00",
        "x": 413,
        "y": 222,
        "width": 29,
        "height": 29
    },
    {
        "color": "#00ff00",
        "x": 290,
        "y": 291,
        "width": 60,
        "height": 60
    },
    {
        "color": "#00ff00",
        "x": 670,
        "y": 288,
        "width": 67,
        "height": 67
    }
]