[
    {
        "color": "#00ff00",
        "x": 2906,
        "y": 807,
        "width": 293,
        "height": 293
    },
    {
        "color": "#00ff00",
        "x": 477,
        "y": 1634,
        "width": 66,
        "height": 66
    }
]