[
    {
        "color": "#00ff00",
        "x": 671,
        "y": 1319,
        "width": 286,
        "height": 286
    },
    {
        "color": "#00ff00",
        "x": 2137,
        "y": 1407,
        "width": 276,
        "height": 276
    }
]