{
    "classifier": "def",
    "true_positive": 4,
    "false_positive": 0,
    "false_negative": 0,
    "true_positive_detections": [
        {
            "x": 820,
            "y": 267,
            "width": 57,
            "height": 57
        },
        {
            "x": 892,
            "y": 305,
            "width": 76,
            "height": 76
        },
        {
            "x": 59,
            "y": 336,
            "width": 69,
            "height": 69
        },
        {
            "x": 534,
            "y": 356,
            "width": 72,
            "height": 72
        }
    ]
}