[
    {
        "color": "#00ff00",
        "x": 821,
        "y": 268,
        "width": 56,
        "height": 56
    },
    {
        "color": "#00ff00",
        "x": 892,
        "y": 304,
        "width": 76,
        "height": 76
    },
    {
        "color": "#00ff00",
        "x": 534,
        "y": 354,
        "width": 74,
        "height": 74
    }
]