[
    {
        "color": "#00ff00",
        "x": 1642,
        "y": 1062,
        "width": 108,
        "height": 108
    },
    {
        "color": "#00ff00",
        "x": 313,
        "y": 1082,
        "width": 162,
        "height": 162
    },
    {
        "color": "#00ff00",
        "x": 1267,
        "y": 1145,
        "width": 134,
        "height": 134
    },
    {
        "color": "#00ff00",
        "x": 2366,
        "y": 1153,
        "width": 109,
        "height": 109
    },
    {
        "color": "#00ff00",
        "x": 2200,
        "y": 1211,
        "width": 139,
        "height": 139
    },
    {
        "color": "#00ff00",
        "x": 3205,
        "y": 1320,
        "width": 157,
        "height": 157
    }
]