[
    {
        "color": "#00ff00",
        "x": 1942,
        "y": 779,
        "width": 120,
        "height": 120
    },
    {
        "color": "#00ff00",
        "x": 2186,
        "y": 832,
        "width": 153,
        "height": 153
    },
    {
        "color": "#00ff00",
        "x": 1147,
        "y": 857,
        "width": 162,
        "height": 162
    },
    {
        "color": "#00ff00",
        "x": 905,
        "y": 950,
        "width": 231,
        "height": 231
    },
    {
        "color": "#00ff00",
        "x": 189,
        "y": 1630,
        "width": 318,
        "height": 318
    },
    {
        "color": "#00ff00",
        "x": 2603,
        "y": 1737,
        "width": 383,
        "height": 383
    },
    {
        "color": "#00ff00",
        "x": 2295,
        "y": 1137,
        "width": 209,
        "height": 209
    }
]