{
    "classifier": "tre",
    "true_positive": 7,
    "false_positive": 0,
    "false_negative": 2,
    "true_positive_detections": [
        {
            "x": 524,
            "y": 242,
            "width": 43,
            "height": 43
        },
        {
            "x": 728,
            "y": 244,
            "width": 44,
            "height": 44
        },
        {
            "x": 672,
            "y": 298,
            "width": 48,
            "height": 48
        },
        {
            "x": 483,
            "y": 302,
            "width": 47,
            "height": 47
        },
        {
            "x": 414,
            "y": 374,
            "width": 70,
            "height": 70
        },
        {
            "x": 744,
            "y": 376,
            "width": 76,
            "height": 76
        },
        {
            "x": 40,
            "y": 478,
            "width": 90,
            "height": 90
        }
    ]
}