[
    {
        "color": "#00ff00",
        "x": 525,
        "y": 243,
        "width": 42,
        "height": 42
    },
    {
        "color": "#00ff00",
        "x": 729,
        "y": 245,
        "width": 41,
        "height": 41
    },
    {
        "color": "#00ff00",
        "x": 673,
        "y": 299,
        "width": 47,
        "height": 47
    },
    {
        "color": "#00ff00",
        "x": 484,
        "y": 303,
        "width": 46,
        "height": 46
    },
    {
        "color": "#00ff00",
        "x": 414,
        "y": 374,
        "width": 71,
        "height": 71
    },
    {
        "color": "#00ff00",
        "x": 744,
        "y": 376,
        "width": 76,
        "height": 76
    },
    {
        "color": "#00ff00",
        "x": 40,
        "y": 479,
        "width": 90,
        "height": 90
    }
]