[
    {
        "color": "#00ff00",
        "x": 3274,
        "y": 1024,
        "width": 142,
        "height": 142
    },
    {
        "color": "#00ff00",
        "x": 2481,
        "y": 1023,
        "width": 134,
        "height": 134
    },
    {
        "color": "#00ff00",
        "x": 831,
        "y": 1040,
        "width": 151,
        "height": 151
    },
    {
        "color": "#00ff00",
        "x": 2635,
        "y": 1151,
        "width": 208,
        "height": 208
    },
    {
        "color": "#00ff00",
        "x": 622,
        "y": 1198,
        "width": 210,
        "height": 210
    }
]