[
    {
        "color": "#00ff00",
        "x": 1754,
        "y": 985,
        "width": 164,
        "height": 164
    },
    {
        "color": "#00ff00",
        "x": 2597,
        "y": 990,
        "width": 178,
        "height": 178
    },
    {
        "color": "#00ff00",
        "x": 3160,
        "y": 1161,
        "width": 242,
        "height": 242
    },
    {
        "color": "#00ff00",
        "x": 2031,
        "y": 1357,
        "width": 53,
        "height": 53
    },
    {
        "color": "#00ff00",
        "x": 1512,
        "y": 1337,
        "width": 228,
        "height": 228
    },
    {
        "color": "#00ff00",
        "x": 753,
        "y": 1616,
        "width": 50,
        "height": 50
    }
]