[
    {
        "color": "#00ff00",
        "x": 1709,
        "y": 836,
        "width": 76,
        "height": 76
    },
    {
        "color": "#00ff00",
        "x": 1531,
        "y": 913,
        "width": 120,
        "height": 120
    },
    {
        "color": "#00ff00",
        "x": 1281,
        "y": 1066,
        "width": 132,
        "height": 132
    },
    {
        "color": "#00ff00",
        "x": 2236,
        "y": 1116,
        "width": 150,
        "height": 150
    },
    {
        "color": "#00ff00",
        "x": 3118,
        "y": 1133,
        "width": 153,
        "height": 153
    },
    {
        "color": "#00ff00",
        "x": 3340,
        "y": 1396,
        "width": 252,
        "height": 252
    },
    {
        "color": "#00ff00",
        "x": 2295,
        "y": 1391,
        "width": 306,
        "height": 306
    }
]