[
    {
        "color": "#00ff00",
        "x": 2670,
        "y": 877,
        "width": 80,
        "height": 80
    },
    {
        "color": "#00ff00",
        "x": 1543,
        "y": 903,
        "width": 124,
        "height": 124
    },
    {
        "color": "#00ff00",
        "x": 1293,
        "y": 1050,
        "width": 143,
        "height": 143
    },
    {
        "color": "#00ff00",
        "x": 3356,
        "y": 1387,
        "width": 257,
        "height": 257
    }
]