[
    {
        "color": "#00ff00",
        "x": 2070,
        "y": 606,
        "width": 54,
        "height": 54
    },
    {
        "color": "#00ff00",
        "x": 2111,
        "y": 607,
        "width": 57,
        "height": 57
    },
    {
        "color": "#00ff00",
        "x": 2064,
        "y": 792,
        "width": 52,
        "height": 52
    },
    {
        "color": "#00ff00",
        "x": 1909,
        "y": 891,
        "width": 56,
        "height": 56
    },
    {
        "color": "#00ff00",
        "x": 2100,
        "y": 914,
        "width": 52,
        "height": 52
    },
    {
        "color": "#00ff00",
        "x": 2064,
        "y": 724,
        "width": 54,
        "height": 54
    },
    {
        "color": "#00ff00",
        "x": 1442,
        "y": 768,
        "width": 67,
        "height": 67
    },
    {
        "color": "#00ff00",
        "x": 878,
        "y": 974,
        "width": 116,
        "height": 116
    },
    {
        "color": "#00ff00",
        "x": 1433,
        "y": 1025,
        "width": 112,
        "height": 112
    },
    {
        "color": "#00ff00",
        "x": 2298,
        "y": 1136,
        "width": 131,
        "height": 131
    },
    {
        "color": "#00ff00",
        "x": 3498,
        "y": 1167,
        "width": 136,
        "height": 136
    },
    {
        "color": "#00ff00",
        "x": 3210,
        "y": 1195,
        "width": 181,
        "height": 181
    },
    {
        "color": "#00ff00",
        "x": 2695,
        "y": 1499,
        "width": 247,
        "height": 247
    },
    {
        "color": "#00ff00",
        "x": 246,
        "y": 2161,
        "width": 71,
        "height": 71
    }
]