{
    "classifier": "al2",
    "true_positive": 5,
    "false_positive": 1,
    "false_negative": 6,
    "true_positive_detections": [
        {
            "x": 322,
            "y": 262,
            "width": 36,
            "height": 36
        },
        {
            "x": 385,
            "y": 225,
            "width": 31,
            "height": 31
        },
        {
            "x": 562,
            "y": 276,
            "width": 40,
            "height": 40
        },
        {
            "x": 782,
            "y": 280,
            "width": 42,
            "height": 42
        },
        {
            "x": 840,
            "y": 348,
            "width": 64,
            "height": 64
        }
    ]
}