[
    {
        "color": "#00ff00",
        "x": 1488,
        "y": 1107,
        "width": 87,
        "height": 87
    },
    {
        "color": "#00ff00",
        "x": 1971,
        "y": 1193,
        "width": 137,
        "height": 137
    },
    {
        "color": "#00ff00",
        "x": 1150,
        "y": 1171,
        "width": 153,
        "height": 153
    },
    {
        "color": "#00ff00",
        "x": 860,
        "y": 1224,
        "width": 195,
        "height": 195
    },
    {
        "color": "#00ff00",
        "x": 2209,
        "y": 1366,
        "width": 181,
        "height": 181
    },
    {
        "color": "#00ff00",
        "x": 468,
        "y": 1724,
        "width": 246,
        "height": 246
    },
    {
        "color": "#00ff00",
        "x": 2335,
        "y": 1778,
        "width": 263,
        "height": 263
    }
]