[
    {
        "color": "#00ff00",
        "x": 1488,
        "y": 1108,
        "width": 86,
        "height": 86
    },
    {
        "color": "#00ff00",
        "x": 1154,
        "y": 1174,
        "width": 147,
        "height": 147
    },
    {
        "color": "#00ff00",
        "x": 1970,
        "y": 1191,
        "width": 142,
        "height": 142
    },
    {
        "color": "#00ff00",
        "x": 861,
        "y": 1224,
        "width": 193,
        "height": 193
    },
    {
        "color": "#00ff00",
        "x": 2202,
        "y": 1360,
        "width": 198,
        "height": 198
    },
    {
        "color": "#00ff00",
        "x": 468,
        "y": 1722,
        "width": 246,
        "height": 246
    }
]