[
    {
        "color": "#00ff00",
        "x": 1024,
        "y": 757,
        "width": 122,
        "height": 122
    },
    {
        "color": "#00ff00",
        "x": 1769,
        "y": 971,
        "width": 161,
        "height": 161
    },
    {
        "color": "#00ff00",
        "x": 1827,
        "y": 1156,
        "width": 220,
        "height": 220
    },
    {
        "color": "#00ff00",
        "x": 733,
        "y": 1237,
        "width": 226,
        "height": 226
    },
    {
        "color": "#00ff00",
        "x": 2210,
        "y": 1536,
        "width": 265,
        "height": 265
    },
    {
        "color": "#00ff00",
        "x": 477,
        "y": 1715,
        "width": 298,
        "height": 298
    }
]