[
    {
        "color": "#00ff00",
        "x": 1429,
        "y": 1102,
        "width": 132,
        "height": 132
    },
    {
        "color": "#00ff00",
        "x": 2115,
        "y": 1143,
        "width": 146,
        "height": 146
    },
    {
        "color": "#00ff00",
        "x": 823,
        "y": 1162,
        "width": 126,
        "height": 126
    },
    {
        "color": "#00ff00",
        "x": 297,
        "y": 1284,
        "width": 162,
        "height": 162
    },
    {
        "color": "#00ff00",
        "x": 2454,
        "y": 1378,
        "width": 200,
        "height": 200
    },
    {
        "color": "#00ff00",
        "x": 1186,
        "y": 1395,
        "width": 185,
        "height": 185
    },
    {
        "color": "#00ff00",
        "x": 323,
        "y": 1630,
        "width": 261,
        "height": 261
    },
    {
        "color": "#00ff00",
        "x": 949,
        "y": 1695,
        "width": 225,
        "height": 225
    },
    {
        "color": "#00ff00",
        "x": 1944,
        "y": 1761,
        "width": 260,
        "height": 260
    }
]