{
    "classifier": "def",
    "true_positive": 9,
    "false_positive": 0,
    "false_negative": 0,
    "true_positive_detections": [
        {
            "x": 466,
            "y": 360,
            "width": 48,
            "height": 48
        },
        {
            "x": 692,
            "y": 372,
            "width": 54,
            "height": 54
        },
        {
            "x": 268,
            "y": 378,
            "width": 48,
            "height": 48
        },
        {
            "x": 94,
            "y": 418,
            "width": 58,
            "height": 58
        },
        {
            "x": 804,
            "y": 450,
            "width": 70,
            "height": 70
        },
        {
            "x": 388,
            "y": 456,
            "width": 62,
            "height": 62
        },
        {
            "x": 104,
            "y": 534,
            "width": 88,
            "height": 88
        },
        {
            "x": 312,
            "y": 558,
            "width": 74,
            "height": 74
        },
        {
            "x": 638,
            "y": 578,
            "width": 86,
            "height": 86
        }
    ]
}