[
    {
        "color": "#00ff00",
        "x": 695,
        "y": 375,
        "width": 47,
        "height": 47
    },
    {
        "color": "#00ff00",
        "x": 271,
        "y": 381,
        "width": 41,
        "height": 41
    },
    {
        "color": "#00ff00",
        "x": 98,
        "y": 422,
        "width": 53,
        "height": 53
    },
    {
        "color": "#00ff00",
        "x": 805,
        "y": 450,
        "width": 70,
        "height": 70
    },
    {
        "color": "#00ff00",
        "x": 388,
        "y": 457,
        "width": 61,
        "height": 61
    },
    {
        "color": "#00ff00",
        "x": 309,
        "y": 556,
        "width": 77,
        "height": 77
    },
    {
        "color": "#00ff00",
        "x": 639,
        "y": 576,
        "width": 87,
        "height": 87
    }
]