[
    {
        "color": "#00ff00",
        "x": 350,
        "y": 210,
        "width": 28,
        "height": 28
    },
    {
        "color": "#00ff00",
        "x": 204,
        "y": 218,
        "width": 29,
        "height": 29
    },
    {
        "color": "#00ff00",
        "x": 386,
        "y": 229,
        "width": 30,
        "height": 30
    },
    {
        "color": "#00ff00",
        "x": 903,
        "y": 236,
        "width": 27,
        "height": 27
    },
    {
        "color": "#00ff00",
        "x": 251,
        "y": 239,
        "width": 35,
        "height": 35
    },
    {
        "color": "#00ff00",
        "x": 554,
        "y": 263,
        "width": 44,
        "height": 44
    },
    {
        "color": "#00ff00",
        "x": 740,
        "y": 282,
        "width": 64,
        "height": 64
    },
    {
        "color": "#00ff00",
        "x": 349,
        "y": 262,
        "width": 53,
        "height": 53
    },
    {
        "color": "#00ff00",
        "x": 433,
        "y": 323,
        "width": 64,
        "height": 64
    }
]