[
    {
        "color": "#00ff00",
        "x": 2801,
        "y": 1001,
        "width": 162,
        "height": 162,
        "x_center": 2882,
        "y_center": 1082
    },
    {
        "color": "#00ff00",
        "x": 1565,
        "y": 1148,
        "width": 157,
        "height": 157,
        "x_center": 1643,
        "y_center": 1226
    },
    {
        "color": "#00ff00",
        "x": 1167,
        "y": 1240,
        "width": 265,
        "height": 265,
        "x_center": 1299,
        "y_center": 1372
    },
    {
        "color": "#00ff00",
        "x": 3141,
        "y": 1937,
        "width": 86,
        "height": 86,
        "x_center": 3184,
        "y_center": 1980
    }
]