[
    {
        "color": "#00ff00",
        "x": 1750,
        "y": 964,
        "width": 98,
        "height": 98,
        "x_center": 1799,
        "y_center": 1013
    },
    {
        "color": "#00ff00",
        "x": 2800,
        "y": 1001,
        "width": 164,
        "height": 164,
        "x_center": 2882,
        "y_center": 1083
    },
    {
        "color": "#00ff00",
        "x": 1561,
        "y": 1149,
        "width": 156,
        "height": 156,
        "x_center": 1639,
        "y_center": 1227
    },
    {
        "color": "#00ff00",
        "x": 1170,
        "y": 1240,
        "width": 265,
        "height": 265,
        "x_center": 1302,
        "y_center": 1372
    }
]