{
    "classifier": "alt",
    "true_positive": 3,
    "false_positive": 0,
    "false_negative": 4,
    "true_positive_detections": [
        {
            "x": 698,
            "y": 249,
            "width": 44,
            "height": 44
        },
        {
            "x": 389,
            "y": 285,
            "width": 44,
            "height": 44
        },
        {
            "x": 294,
            "y": 311,
            "width": 65,
            "height": 65
        }
    ]
}