[
    {
        "color": "#00ff00",
        "x": 697,
        "y": 247,
        "width": 48,
        "height": 48
    },
    {
        "color": "#00ff00",
        "x": 295,
        "y": 310,
        "width": 64,
        "height": 64
    }
]