[
    {
        "color": "#00ff00",
        "x": 1934,
        "y": 1150,
        "width": 115,
        "height": 115
    },
    {
        "color": "#00ff00",
        "x": 1894,
        "y": 1063,
        "width": 178,
        "height": 178
    },
    {
        "color": "#00ff00",
        "x": 2347,
        "y": 1187,
        "width": 185,
        "height": 185
    },
    {
        "color": "#00ff00",
        "x": 2954,
        "y": 1289,
        "width": 228,
        "height": 228
    },
    {
        "color": "#00ff00",
        "x": 68,
        "y": 1805,
        "width": 91,
        "height": 91
    }
]