[
    {
        "color": "#00ff00",
        "x": 86,
        "y": 790,
        "width": 84,
        "height": 84
    },
    {
        "color": "#00ff00",
        "x": 637,
        "y": 802,
        "width": 86,
        "height": 86
    },
    {
        "color": "#00ff00",
        "x": 1709,
        "y": 848,
        "width": 124,
        "height": 124
    },
    {
        "color": "#00ff00",
        "x": 2231,
        "y": 902,
        "width": 125,
        "height": 125
    },
    {
        "color": "#00ff00",
        "x": 1430,
        "y": 937,
        "width": 141,
        "height": 141
    },
    {
        "color": "#00ff00",
        "x": 2494,
        "y": 960,
        "width": 153,
        "height": 153
    },
    {
        "color": "#00ff00",
        "x": 954,
        "y": 1155,
        "width": 270,
        "height": 270
    },
    {
        "color": "#00ff00",
        "x": 2724,
        "y": 1273,
        "width": 236,
        "height": 236
    }
]