{
    "classifier": "al2",
    "true_positive": 3,
    "false_positive": 0,
    "false_negative": 0,
    "true_positive_detections": [
        {
            "x": 353,
            "y": 485,
            "width": 28,
            "height": 28
        },
        {
            "x": 96,
            "y": 528,
            "width": 60,
            "height": 60
        },
        {
            "x": 383,
            "y": 475,
            "width": 24,
            "height": 24
        }
    ]
}