[
    {
        "color": "#00ff00",
        "x": 99,
        "y": 367,
        "width": 152,
        "height": 152
    },
    {
        "color": "#00ff00",
        "x": 2533,
        "y": 429,
        "width": 140,
        "height": 140
    },
    {
        "color": "#00ff00",
        "x": 2710,
        "y": 554,
        "width": 181,
        "height": 181
    },
    {
        "color": "#00ff00",
        "x": 1392,
        "y": 556,
        "width": 169,
        "height": 169
    },
    {
        "color": "#00ff00",
        "x": 1198,
        "y": 799,
        "width": 277,
        "height": 277
    },
    {
        "color": "#00ff00",
        "x": 2757,
        "y": 830,
        "width": 294,
        "height": 294
    }
]