[
    {
        "color": "#00ff00",
        "x": 195,
        "y": 213,
        "width": 27,
        "height": 27
    },
    {
        "color": "#00ff00",
        "x": 327,
        "y": 231,
        "width": 31,
        "height": 31
    },
    {
        "color": "#00ff00",
        "x": 145,
        "y": 205,
        "width": 40,
        "height": 40
    },
    {
        "color": "#00ff00",
        "x": 807,
        "y": 256,
        "width": 44,
        "height": 44
    },
    {
        "color": "#00ff00",
        "x": 220,
        "y": 264,
        "width": 44,
        "height": 44
    },
    {
        "color": "#00ff00",
        "x": 451,
        "y": 294,
        "width": 41,
        "height": 41
    },
    {
        "color": "#00ff00",
        "x": 828,
        "y": 303,
        "width": 56,
        "height": 56
    }
]